<?xml version="1.0" encoding="utf-8"?>
<!-- Generator: Adobe Illustrator 22.0.0, SVG Export Plug-In . SVG Version: 6.00 Build 0)  -->
<svg version="1.1" id="Layer_1" xmlns="http://www.w3.org/2000/svg" xmlns:xlink="http://www.w3.org/1999/xlink" x="0px" y="0px"
	 viewBox="0 0 135 51" style="enable-background:new 0 0 135 51;" xml:space="preserve">
<style type="text/css">
	.st0{fill:#EC1C24;}
	.st1{fill:#005AA9;}
</style>
<g>
	<path class="st0" d="M101,17c0.1-0.1,0.1-0.1,0.1-0.1c0.1,0,0.1,0.1,0.1,0.1c0,0.1,0,0.1-0.1,0.2c-1.9,2.4-3.3,5.1-3.3,8.9
		c0,3.8,1.4,6.5,3.3,8.9c0,0,0.1,0.1,0.1,0.2c0,0.1-0.1,0.2-0.1,0.2c0,0-0.1,0-0.1-0.1l-8.1-7.8c-0.4-0.3-0.7-0.7-0.7-1.3
		c0-0.6,0.3-1,0.7-1.3L101,17z"/>
	<path class="st1" d="M107.2,16.3c-3.2,0-4.4,4.5-4.4,9.8c0,5.3,1.2,9.8,4.4,9.8c1.9,0,3.5-1.1,3.5-2c0-0.2-0.1-0.4-0.2-0.6
		c-0.9-0.9-1.3-1.7-1.3-2.5c0-1.5,1.3-2.6,2.4-2.6c1.6,0,2.6,1.3,2.6,2.9c0,1.6-0.7,2.8-1.4,3.9c0,0,0,0.1,0,0.1
		c0,0.1,0,0.1,0.1,0.1c0,0,0.1,0,0.2-0.1l8.1-7.8c0.4-0.3,0.7-0.7,0.7-1.3c0-0.6-0.3-1-0.7-1.3l-8.1-7.8c-0.1-0.1-0.1-0.1-0.2-0.1
		c-0.1,0-0.1,0.1-0.1,0.1c0,0,0,0.1,0,0.1c0.7,1,1.4,2.3,1.4,3.9c0,1.6-0.9,2.9-2.6,2.9c-1.2,0-2.4-1.1-2.4-2.6
		c0-0.8,0.4-1.6,1.3-2.5c0.2-0.2,0.2-0.4,0.2-0.6C110.8,17.4,109.1,16.3,107.2,16.3"/>
	<path class="st1" d="M15.7,30.6c-1-1-1.6-2.5-1.6-4.4c0-1.8,0.6-3.3,1.6-4.3c1-1.1,2.3-1.7,3.7-1.7c2.5,0,4.3,1.8,4.3,3.3
		c0,0.8-0.5,1.4-1.2,1.4c-0.3,0-0.7-0.1-0.9-0.3c-0.2-0.2-0.4-0.5-0.4-0.9c0-0.5,0.2-0.8,0.4-1c-0.3-0.6-1-1-2-1.1
		c-0.9,0-1.6,0.5-2.1,1.3c-0.5,0.8-0.8,1.9-0.8,3.3c0,1.4,0.3,2.5,0.9,3.3c0.5,0.8,1.3,1.2,2.2,1.2c1,0,1.7-0.5,2-1.1
		c-0.2-0.2-0.4-0.5-0.4-1c0-0.4,0.1-0.7,0.4-0.9c0.2-0.2,0.6-0.3,0.9-0.3c0.7,0,1.2,0.6,1.2,1.4c0,1.5-1.8,3.3-4.3,3.3
		C18,32.1,16.7,31.6,15.7,30.6 M15.7,30.6c-1-1-1.6-2.5-1.6-4.4c0-1.8,0.6-3.3,1.6-4.3c1-1.1,2.3-1.7,3.7-1.7c2.5,0,4.3,1.8,4.3,3.3
		c0,0.8-0.5,1.4-1.2,1.4c-0.3,0-0.7-0.1-0.9-0.3c-0.2-0.2-0.4-0.5-0.4-0.9c0-0.5,0.2-0.8,0.4-1c-0.3-0.6-1-1-2-1.1
		c-0.9,0-1.6,0.5-2.1,1.3c-0.5,0.8-0.8,1.9-0.8,3.3c0,1.4,0.3,2.5,0.9,3.3c0.5,0.8,1.3,1.2,2.2,1.2c1,0,1.7-0.5,2-1.1
		c-0.2-0.2-0.4-0.5-0.4-1c0-0.4,0.1-0.7,0.4-0.9c0.2-0.2,0.6-0.3,0.9-0.3c0.7,0,1.2,0.6,1.2,1.4c0,1.5-1.8,3.3-4.3,3.3
		C18,32.1,16.7,31.6,15.7,30.6 M15.7,30.6c-1-1-1.6-2.5-1.6-4.4c0-1.8,0.6-3.3,1.6-4.3c1-1.1,2.3-1.7,3.7-1.7c2.5,0,4.3,1.8,4.3,3.3
		c0,0.8-0.5,1.4-1.2,1.4c-0.3,0-0.7-0.1-0.9-0.3c-0.2-0.2-0.4-0.5-0.4-0.9c0-0.5,0.2-0.8,0.4-1c-0.3-0.6-1-1-2-1.1
		c-0.9,0-1.6,0.5-2.1,1.3c-0.5,0.8-0.8,1.9-0.8,3.3c0,1.4,0.3,2.5,0.9,3.3c0.5,0.8,1.3,1.2,2.2,1.2c1,0,1.7-0.5,2-1.1
		c-0.2-0.2-0.4-0.5-0.4-1c0-0.4,0.1-0.7,0.4-0.9c0.2-0.2,0.6-0.3,0.9-0.3c0.7,0,1.2,0.6,1.2,1.4c0,1.5-1.8,3.3-4.3,3.3
		C18,32.1,16.7,31.6,15.7,30.6 M52,26.6c0.2,0,0.2,0,0.2-0.1c0-0.1,0-0.2,0-0.3c0-0.8-0.6-1.5-1.6-1.5c-1.2,0-1.7,0.9-1.7,1.9
		L52,26.6L52,26.6z M28.6,28c-0.9,0-1.5,0.4-1.5,1.3c0,0.8,0.5,1.3,1.4,1.3c0.5,0,1.1-0.3,1.5-0.7v-1.2c0-0.2-0.1-0.3-0.3-0.5
		C29.3,28.1,29,28,28.6,28 M63,27.5c0,2.3,1,3.2,1.9,3.2c1.1,0,1.9-1,1.9-2.9c0-1-0.2-1.8-0.6-2.3c-0.4-0.5-0.8-0.8-1.4-0.8
		C63.7,24.7,63,25.8,63,27.5 M34.4,31.8c-0.4-0.1-0.6-0.3-0.6-0.6c0-0.1,0-0.2,0.1-0.4l0,0l0,0c0.1,0,0.4-0.1,0.6-0.2
		c0.2-0.2,0.3-0.4,0.3-1.1V26c0-0.6-0.2-0.8-0.6-0.8c-0.1,0-0.2,0-0.4,0l-0.1,0l0-0.1c-0.1-0.1-0.1-0.3-0.1-0.4c0-0.7,0.8-1,1.3-1.2
		c0.2-0.1,0.4-0.1,0.6-0.1c0.7,0,1.1,0.5,1.2,1.1c0.5-0.7,1.2-1.2,1.9-1.2c0.7,0,1.3,0.4,1.3,1.3c0,0.6-0.4,1.2-1.1,1.2
		c-0.5,0-1-0.3-1-0.8c-0.4,0.1-0.9,0.6-1,2.3v2.1c0,0.7,0.1,0.9,0.3,1.1c0.2,0.2,0.6,0.2,0.7,0.3l0,0l0,0C38,31,38,31.1,38,31.2
		c0,0.3-0.2,0.5-0.5,0.6c-0.3,0.1-0.8,0.1-1.5,0.1C35.3,31.9,34.8,31.9,34.4,31.8 M41.3,31.8c-0.4-0.1-0.6-0.3-0.6-0.6
		c0-0.1,0-0.2,0.1-0.4l0,0l0,0c0.1,0,0.4-0.1,0.6-0.2c0.2-0.2,0.3-0.4,0.3-1.1V26c0-0.6-0.2-0.8-0.6-0.8c-0.1,0-0.2,0-0.4,0l-0.1,0
		l0-0.1c-0.1-0.1-0.1-0.3-0.1-0.4c0-0.7,0.8-1,1.3-1.2c0.2-0.1,0.4-0.1,0.6-0.1c0.7,0,1.1,0.5,1.2,1.1c0.5-0.7,1.2-1.2,1.9-1.2
		c0.7,0,1.3,0.4,1.3,1.3c0,0.6-0.4,1.2-1.1,1.2c-0.5,0-1-0.3-1-0.8c-0.4,0.1-1,0.6-1,2.3v2.1c0,0.7,0.1,0.9,0.3,1.1
		c0.2,0.2,0.6,0.2,0.7,0.3l0,0l0,0c0.1,0.1,0.1,0.3,0.1,0.4c0,0.3-0.2,0.5-0.5,0.6c-0.3,0.1-0.8,0.1-1.5,0.1
		C42.2,31.9,41.7,31.9,41.3,31.8 M55.8,31.8c-0.4-0.1-0.6-0.3-0.6-0.6c0-0.1,0-0.2,0.1-0.4l0,0l0,0c0.1,0,0.4-0.1,0.6-0.2
		c0.2-0.2,0.3-0.4,0.3-1.1v-4.5l-1.2,0l0-0.1c-0.1-0.1-0.1-0.3-0.1-0.4c0-0.4,0.3-0.7,0.8-0.7h0.5v-0.5c0-1.2,0.2-1.9,0.5-2.4
		c0.5-0.7,1.3-1.2,2.5-1.2c1.6,0,2.9,0.7,2.9,1.9c0,0.5-0.4,1.1-1.1,1.1c-0.6,0-1.1-0.5-1.1-1c0-0.2,0.1-0.4,0.2-0.6
		c-0.2-0.1-0.5-0.2-0.8-0.2c-0.5,0-0.8,0.2-0.9,0.4c-0.2,0.3-0.2,0.7-0.2,1.2v1.3h2.1l0,0.1c0.1,0.2,0.1,0.3,0.1,0.4
		c0,0.5-0.3,0.8-0.7,0.8c-0.2,0-0.3,0-0.5,0c-0.3,0-0.7,0-0.9,0v4.5c0,0.7,0.1,0.9,0.3,1.1c0.2,0.1,0.7,0.2,0.8,0.3l0,0l0,0
		c0.1,0.1,0.1,0.2,0.1,0.3c0,0.3-0.3,0.5-0.6,0.6c-0.4,0.1-0.9,0.1-1.6,0.1C56.7,31.9,56.2,31.9,55.8,31.8 M80.5,31.8
		c-0.4-0.1-0.6-0.3-0.6-0.6c0-0.1,0-0.2,0.1-0.4l0,0l0,0c0.1,0,0.4-0.1,0.6-0.3c0.2-0.2,0.3-0.4,0.3-1.1V26c0-0.6-0.1-0.8-0.6-0.8
		c-0.1,0-0.2,0-0.4,0l-0.1,0l0-0.1c-0.1-0.1-0.1-0.3-0.1-0.4c0-0.7,0.8-1,1.3-1.2c0.2-0.1,0.4-0.1,0.6-0.1c0.7,0,1.1,0.5,1.2,1.1
		c0.4-0.7,1.2-1.2,1.9-1.2c0.7,0,1.3,0.4,1.3,1.3c0,0.6-0.4,1.2-1.1,1.2c-0.5,0-1-0.3-1.1-0.8c-0.4,0.1-0.9,0.6-0.9,2.3v2.1
		c0,0.7,0.1,0.9,0.3,1.1c0.2,0.2,0.6,0.2,0.7,0.3l0,0l0,0c0.1,0.1,0.1,0.3,0.1,0.4c0,0.3-0.2,0.5-0.5,0.6c-0.3,0.1-0.8,0.1-1.5,0.1
		C81.4,31.9,80.9,31.9,80.5,31.8 M64.9,32c-1.2,0-2.2-0.4-3-1.2c-0.8-0.8-1.2-1.8-1.2-3.1c0-2.5,2-4.3,4.3-4.3c1.2,0,2.3,0.4,3,1.2
		c0.7,0.8,1.2,1.8,1.2,3.1c0,1.3-0.5,2.4-1.2,3.1C67.2,31.6,66.1,32,64.9,32L64.9,32z M46.8,27.9c0-1.3,0.4-2.4,1.2-3.2
		c0.7-0.8,1.8-1.3,3.1-1.3c1.1,0,2,0.4,2.5,1c0.6,0.6,0.8,1.4,0.8,2.1c0,0.4-0.1,0.8-0.3,1.2l0,0H49c0.1,1.5,1,2.5,2.7,2.5
		c1,0,1.8-0.6,2.1-0.9l0.1-0.1l0.1,0.1c0.1,0.1,0.3,0.3,0.3,0.7c0,0.9-1,2-3.2,2C48.6,32.1,46.8,30.3,46.8,27.9 M76.2,31.7
		c-0.2-0.2-0.2-0.5-0.3-0.8c-0.1,0.1-0.2,0.2-0.3,0.3c-0.5,0.5-1.3,0.8-2.1,0.8c-0.9,0-1.6-0.3-2.1-0.9c-0.7-0.9-0.7-2-0.7-3.6v-1.5
		c0-0.6-0.2-0.8-0.8-0.8c-0.1,0-0.2,0-0.2,0l-0.1,0l0-0.1c0-0.1-0.1-0.2-0.1-0.3c0-0.7,0.9-1.1,1.5-1.2c0.2,0,0.4-0.1,0.5-0.1
		c0.4,0,0.8,0.1,1,0.4c0.2,0.3,0.3,0.6,0.3,1l0,2.6c0,1,0.1,1.7,0.3,2.1c0.2,0.5,0.5,0.7,1.1,0.7c0.6,0,1-0.3,1.3-0.7
		c0.3-0.4,0.3-1,0.3-1.5v-2.1c0-0.6-0.2-0.8-0.8-0.8c-0.1,0-0.2,0-0.2,0l-0.1,0l0-0.1c0-0.1-0.1-0.2-0.1-0.3c0-0.7,0.9-1.1,1.5-1.2
		c0.2,0,0.4-0.1,0.5-0.1c0.4,0,0.8,0.1,1,0.4c0.2,0.3,0.3,0.6,0.3,1c0,0.3,0,0.8,0,3c0,0.9,0,1.4,0,1.6c0,0.6,0.2,0.9,0.8,0.9
		c0.1,0,0.1,0,0.2,0l0.1,0l0,0.1c0,0.1,0.1,0.2,0.1,0.3c0,0.7-1,1-1.5,1.1c-0.2,0-0.4,0.1-0.5,0.1h0C76.7,32.1,76.4,31.9,76.2,31.7
		 M24.8,29.4c0-0.8,0.4-1.5,1-1.9c0.6-0.4,1.4-0.7,2.4-0.7c0.6,0,1.2,0.1,1.7,0.3v-0.9c0-0.9-0.4-1.4-1.4-1.5c-0.2,0-0.6,0.1-1,0.2
		c0,0.1,0.1,0.3,0.1,0.4c0,0.3-0.1,0.6-0.3,0.8c-0.2,0.2-0.5,0.3-0.8,0.3c-0.6,0-1-0.5-1.1-1.1c0-1.1,1.4-1.9,3.2-1.9
		c1.4,0,2.3,0.3,2.8,1c0.4,0.6,0.5,1.4,0.5,2.5v3c0,0.6,0.3,0.7,1.1,0.8l0.1,0l0,0.1c0,0.8-0.6,1.1-1.2,1.2c-0.1,0-0.1,0-0.2,0
		c-0.6,0-1.2-0.3-1.5-0.9c-0.4,0.3-1.3,0.9-2.4,0.9C26.1,32.1,24.8,30.9,24.8,29.4"/>
</g>
</svg>
