<?xml version="1.0" encoding="utf-8"?>
<!-- Generator: Adobe Illustrator 22.0.0, SVG Export Plug-In . SVG Version: 6.00 Build 0)  -->
<svg version="1.1" id="Layer_1" xmlns="http://www.w3.org/2000/svg" xmlns:xlink="http://www.w3.org/1999/xlink" x="0px" y="0px"
	 viewBox="0 0 135 51" style="enable-background:new 0 0 135 51;" xml:space="preserve">
<style type="text/css">
	.st0{fill:#2C354F;}
	.st1{clip-path:url(#SVGID_2_);fill:url(#SVGID_3_);}
</style>
<g>
	<path class="st0" d="M56.5,21.1c0.1,0,0.1,0.1,0.1,0.1v7.9c0,2.8-2.2,4-4.4,4c-1.7,0-3.1-0.6-3.9-1.9c0-0.1,0-0.1,0-0.2l1.9-1.1
		c0.1,0,0.1,0,0.2,0c0.3,0.5,0.8,0.9,1.9,0.9c1.2,0,1.9-0.6,1.9-1.8v-0.4c0-0.1-0.1-0.2-0.2-0.1c-0.5,0.5-1.3,0.8-2.2,0.8
		c-2.4,0-4.1-2-4.1-4.3s1.8-4.3,4.1-4.3c1,0,1.7,0.3,2.2,0.8c0.1,0.1,0.2,0,0.2-0.1V21c0-0.1,0.1-0.1,0.1-0.1h2.2V21.1z M54.2,25.1
		c0-1.2-0.8-2-2-2s-2,0.8-2,2s0.8,2,2,2C53.3,27.1,54.2,26.3,54.2,25.1"/>
	<path class="st0" d="M66.9,25.3c0,2.5-1.8,4.4-4,4.4c-1,0-1.7-0.3-2.3-0.8c-0.1-0.1-0.2,0-0.2,0.1v3.7c0,0.1-0.1,0.1-0.1,0.1H58
		c-0.1,0-0.1-0.1-0.1-0.1V21.2c0-0.1,0.1-0.1,0.1-0.1h2.3c0.1,0,0.1,0.1,0.1,0.1v0.3c0,0.1,0.1,0.2,0.2,0.1c0.5-0.5,1.3-0.8,2.3-0.8
		C65.1,20.8,66.9,22.8,66.9,25.3 M64.4,25.3c0-1.3-0.8-2.1-2-2.1s-2,0.8-2,2.1c0,1.3,0.8,2.1,2,2.1C63.5,27.3,64.4,26.6,64.4,25.3"
		/>
	<path class="st0" d="M74,27c0,1.9-1.7,2.8-3.5,2.8c-1.6,0-2.9-0.6-3.6-1.9c0-0.1,0-0.1,0.1-0.2l1.9-1.1c0.1,0,0.2,0,0.2,0.1
		c0.2,0.6,0.7,0.9,1.4,0.9c0.6,0,0.9-0.2,0.9-0.5c0-0.9-4.1-0.4-4.1-3.4c0-1.8,1.5-2.8,3.3-2.8c1.3,0,2.5,0.6,3.2,1.7
		c0,0.1,0,0.2-0.1,0.2l-1.9,1c-0.1,0-0.1,0-0.2,0c-0.2-0.4-0.6-0.6-1.1-0.6c-0.4,0-0.7,0.2-0.7,0.5C69.9,24.5,74,23.9,74,27"/>
	<path class="st0" d="M76.5,20.6v0.3c0,0.1,0.1,0.1,0.1,0.1h2.2c0.1,0,0.1,0.1,0.1,0.1v0.6c0,0.1-0.1,0.1-0.1,0.1h-2.2
		c-0.1,0-0.1,0.1-0.1,0.1v7.3c0,0.1-0.1,0.1-0.1,0.1h-0.6c-0.1,0-0.1-0.1-0.1-0.1V22c0-0.1-0.1-0.1-0.1-0.1h-1.2
		c-0.1,0-0.1-0.1-0.1-0.1v-0.6c0-0.1,0.1-0.1,0.1-0.1h1.2c0.1,0,0.1-0.1,0.1-0.1v-0.3c0-2,1.1-3.2,3.2-3.1c0.1,0,0.1,0.1,0.1,0.1
		v0.5c0,0.1-0.1,0.1-0.1,0.1C77.3,18.2,76.5,19,76.5,20.6"/>
	<path class="st0" d="M87.4,21.2v8.2c0,0.1-0.1,0.1-0.1,0.1h-0.6c-0.1,0-0.1-0.1-0.1-0.1v-1.3c0-0.1-0.2-0.2-0.2-0.1
		c-0.7,1-1.9,1.7-3.4,1.7c-2.4,0-4.4-1.9-4.4-4.4s2-4.4,4.4-4.4c1.4,0,2.6,0.7,3.4,1.7c0.1,0.1,0.2,0.1,0.2-0.1v-1.3
		c0-0.1,0.1-0.1,0.1-0.1L87.4,21.2C87.3,21.1,87.4,21.1,87.4,21.2 M86.5,25c-0.2-1.7-1.4-3-3.1-3.2c-2.3-0.3-4.2,1.7-4,3.9
		c0.2,1.7,1.4,3,3.1,3.2C84.8,29.1,86.7,27.2,86.5,25"/>
	<path class="st0" d="M92.9,21.1v0.5c0,0.1-0.1,0.1-0.1,0.1c-1.4,0.1-2.7,1-2.7,3v4.5c0,0.1-0.1,0.1-0.1,0.1h-0.6
		c-0.1,0-0.1-0.1-0.1-0.1V21c0-0.1,0.1-0.1,0.1-0.1H90c0.1,0,0.1,0.1,0.1,0.1v1c0,0.1,0.2,0.2,0.2,0.1c0.6-0.9,1.5-1.3,2.4-1.3
		C92.9,21,92.9,21,92.9,21.1"/>
	<path class="st0" d="M106,24.2v5.2c0,0.1-0.1,0.1-0.1,0.1h-0.6c-0.1,0-0.1-0.1-0.1-0.1v-5.2c0-1.6-0.9-2.5-2.2-2.5
		c-1.4,0-2.5,0.9-2.5,3.1v4.6c0,0.1-0.1,0.1-0.1,0.1h-0.6c-0.1,0-0.1-0.1-0.1-0.1v-5.2c0-1.6-0.9-2.5-2.2-2.5
		c-1.4,0-2.6,0.9-2.6,3.1v4.6c0,0.1-0.1,0.1-0.1,0.1h-0.6c-0.1,0-0.1-0.1-0.1-0.1v-8.2c0-0.1,0.1-0.1,0.1-0.1h0.6
		c0.1,0,0.1,0.1,0.1,0.1V22c0,0.1,0.2,0.2,0.2,0.1c0.6-0.9,1.5-1.2,2.5-1.2c1.1,0,2,0.5,2.5,1.5c0,0.1,0.2,0.1,0.2,0
		c0.6-1,1.6-1.5,2.7-1.5C104.7,20.9,106,22.1,106,24.2"/>
	<path class="st0" d="M116,21.2v8.2c0,0.1-0.1,0.1-0.1,0.1h-0.6c-0.1,0-0.1-0.1-0.1-0.1v-1.3c0-0.1-0.2-0.2-0.2-0.1
		c-0.7,1-1.9,1.7-3.4,1.7c-2.4,0-4.4-1.9-4.4-4.4s2-4.4,4.4-4.4c1.4,0,2.6,0.7,3.4,1.7c0.1,0.1,0.2,0.1,0.2-0.1v-1.3
		c0-0.1,0.1-0.1,0.1-0.1L116,21.2C115.9,21.1,116,21.1,116,21.2 M115.1,25c-0.2-1.7-1.4-3-3.1-3.2c-2.3-0.3-4.2,1.7-4,3.9
		c0.2,1.7,1.4,3,3.1,3.2C113.4,29.1,115.3,27.2,115.1,25"/>
	<g>
		<g>
			<g>
				<defs>
					<path id="SVGID_1_" d="M29.5,13.3C24,13.4,19.6,17.6,19,23c-0.1,1.1,0,2.1,0.1,3.1c0,0,0,0.1,0.1,0.3c0.2,0.7,0.4,1.5,0.7,2.2
						c1.9,4,3.9,6.3,9.8,9.8c0.1,0,0.2,0,0.2,0c6.1-3.5,7.9-5.7,9.6-9.8c0.3-0.7,0.6-1.4,0.7-2.2c0.1-0.2,0.1-0.3,0.1-0.3
						c0.1-0.3,0.1-0.5,0.1-0.8c-0.8,0.3-1.7,0.5-2.6,0.5c-0.8,0-1.5-0.1-2.2-0.3c-0.7,2.7-3.2,4.6-6.1,4.6c-3.2-0.1-5.8-2.6-6-5.7
						c-0.2-3.6,2.6-6.5,6.1-6.5c0.3,0,0.6,0,0.9,0.1c0.1-1.6,0.8-3.1,1.9-4.2c-0.9-0.2-1.8-0.4-2.8-0.4
						C29.7,13.2,29.6,13.2,29.5,13.3 M34.6,19.4v-1.8c0-0.1,0.1-0.2,0.2-0.2h1.9c0.1,0,0.2-0.1,0.2-0.2v-1.9c0-0.1,0.1-0.2,0.2-0.2
						h1.8c0.1,0,0.2,0.1,0.2,0.2v1.9c0,0.1,0.1,0.2,0.2,0.2h1.9c0.1,0,0.2,0.1,0.2,0.2v1.8c0,0.1-0.1,0.2-0.2,0.2h-1.9
						c-0.1,0-0.2,0.1-0.2,0.2v1.9c0,0.1-0.1,0.2-0.2,0.2h-1.8c-0.1,0-0.2-0.1-0.2-0.2v-1.9c0-0.1-0.1-0.2-0.2-0.2h-1.9
						C34.7,19.6,34.6,19.5,34.6,19.4 M32.1,19.1c0.3,2.8,2.5,5,5.3,5.3c3.8,0.4,6.9-2.8,6.5-6.5c-0.3-2.8-2.5-5-5.3-5.3
						c-0.2,0-0.4,0-0.6,0C34.5,12.6,31.8,15.6,32.1,19.1"/>
				</defs>
				<clipPath id="SVGID_2_">
					<use xlink:href="#SVGID_1_"  style="overflow:visible;"/>
				</clipPath>
				
					<linearGradient id="SVGID_3_" gradientUnits="userSpaceOnUse" x1="-1798.8538" y1="418.8972" x2="-1798.7137" y2="418.8972" gradientTransform="matrix(136.4227 -136.4227 -136.4227 -136.4227 302574.9688 -188223.7031)">
					<stop  offset="0" style="stop-color:#64AFF0"/>
					<stop  offset="1" style="stop-color:#74CDB1"/>
				</linearGradient>
				<polygon class="st1" points="6,25.5 31.6,-0.1 57.2,25.5 31.6,51.1 				"/>
			</g>
		</g>
	</g>
</g>
</svg>
